<?xml version="1.0" encoding="UTF-8" standalone="no"?>
<svg
   xmlns:dc="http://purl.org/dc/elements/1.1/"
   xmlns:cc="http://creativecommons.org/ns#"
   xmlns:rdf="http://www.w3.org/1999/02/22-rdf-syntax-ns#"
   xmlns:svg="http://www.w3.org/2000/svg"
   xmlns="http://www.w3.org/2000/svg"
   id="svg2119"
   version="1.1"
   viewBox="0 0 217.47748 171.29729"
   height="171.29729pt"
   width="217.47748pt">
  <defs
     id="defs2113" />
  <metadata
     id="metadata2116">
    <rdf:RDF>
      <cc:Work
         rdf:about="">
        <dc:format>image/svg+xml</dc:format>
        <dc:type
           rdf:resource="http://purl.org/dc/dcmitype/StillImage" />
        <dc:title></dc:title>
      </cc:Work>
    </rdf:RDF>
  </metadata>
  <g
     transform="translate(6.6851737,-24.631121)"
     id="layer1">
    <g
       transform="matrix(0.3658081,0,0,0.3658081,-360.40688,-42.901283)"
       id="g3081"
       style="display:inline">
      <g
         style="display:inline;fill:#26c8bc;fill-opacity:1"
         id="g299-7"
         transform="matrix(29.6485,0,0,29.16349,908.09326,68.488765)">
        <path
           transform="matrix(0.01848327,0,0,0.01879066,-81.006066,-56.336036)"
           style="fill:#26c8bc;fill-opacity:1;stroke-width:53.65862274"
           d="m 4599.0801,3210.959 c -59.5133,0 -107.6641,47.8958 -107.6641,106.4355 l -0.541,638.6153 c 0,58.5397 48.6918,106.4355 108.2051,106.4355 h 865.6484 c 59.5133,0 108.2051,-47.8958 108.2051,-106.4355 V 3210.959 h -216.4121 l 108.207,212.8711 h -162.3086 l -108.207,-212.8711 h -108.2051 l 108.2051,212.8711 H 5031.9043 L 4923.6992,3210.959 h -108.207 l 108.207,212.8711 h -162.3086 l -108.207,-212.8711 z m 599.2656,279.3652 h 259.6934 v 255.4453 l -99.1172,-97.4961 -272.6778,267.793 -173.1289,-170.2969 -259.6953,255.4453 -61.0273,-60.0293 320.7226,-315.9023 173.1289,170.2988 211.2168,-207.7636 z"
           id="path2-2" />
        <g
           transform="translate(-7.5508475,4.1186441)"
           id="g28-5"
           style="fill:#26c8bc;fill-opacity:1" />
      </g>
      <path
         style="fill:#f6df9e;fill-opacity:1;stroke:none;stroke-width:0.67500001px;stroke-linecap:butt;stroke-linejoin:miter;stroke-opacity:1"
         d="m 1056.3352,185.14281 14.7476,29.91612 c -95.9387,-5.30744 -80.43078,145.42696 -63.378,210.3151 13.0984,-22.21805 8.9381,-23.96402 37.7081,-58.13019 -16.4241,43.67378 -20.9121,60.00158 -25.1007,90.85946 -17.7145,130.50335 -17.0023,161.64873 34.7128,193.65504 -56.54021,5.37318 -92.52726,-16.08999 -87.61893,-77.33438 l 0.26703,-315.22477 c -3.58293,-40.36343 13.99144,-65.66606 47.7961,-73.00016 13.507,-2.45008 27.244,-0.70415 40.866,-1.05622 z"
         id="path2889" />
      <path
         style="display:inline;fill:#1d707e;fill-opacity:1;stroke:none;stroke-width:0.67500001px;stroke-linecap:butt;stroke-linejoin:miter;stroke-opacity:1"
         d="m 1442.0593,185.47258 15.2899,29.91612 c 76.0131,-0.52531 89.0934,148.1591 83.4245,210.31511 -21.0583,-16.91144 -20.5198,-19.5188 -38.6627,-58.13019 0,39.9793 1.8202,60.00158 6.0088,90.85946 17.7145,130.50335 17.0023,161.64873 -34.7128,193.65504 56.5402,5.37317 92.5272,-16.09 87.6189,-77.33439 l -1.121,-390.14217 -47.1211,0.57484 z"
         id="path2889-3" />
      <path
         style="fill:#ffffff;fill-opacity:1;stroke:none;stroke-width:0.67500001px;stroke-linecap:butt;stroke-linejoin:miter;stroke-opacity:1"
         d="m 1020.3555,185.5883 c -36.02394,1.11062 -54.75772,37.38474 -53.27174,61.01451 l 0.0138,339.84763 c 1.79477,46.17385 19.35704,52.74513 38.91044,61.62782 17.5,5.26157 33.4859,4.8868 49.1906,3.46548 -16.7744,-0.1707 -33.0891,-3.25327 -49.1906,-7.68549 -21.47112,-10.25554 -33.72196,-28.44853 -34.58914,-57.75294 l -0.95458,-340.07416 c 1.28439,-16.72703 14.93381,-52.56431 49.04232,-55.48579 l 36.7388,-5.45016 c -11.9269,0.10189 -23.5626,-0.29728 -35.8899,0.4931 z"
         id="path2906" />
      <path
         style="fill:#f6df9e;fill-opacity:1;stroke:none;stroke-width:0.67500001px;stroke-linecap:butt;stroke-linejoin:miter;stroke-opacity:1"
         d="m 1145.2806,185.14281 59.2975,116.65362 h 11.0976 l -58.3496,-116.50134 z"
         id="path2910" />
      <path
         id="path2912"
         d="m 1145.2806,185.14281 59.2975,116.65362 2.5631,-0.007 -58.5779,-116.2682 z"
         style="fill:#ffffff;stroke:none;stroke-width:0.58515567px;stroke-linecap:butt;stroke-linejoin:miter;stroke-opacity:1" />
      <g
         transform="translate(148.24285,-2.0899478e-6)"
         style="display:inline"
         id="g2916-2">
        <path
           id="path2910-9"
           d="m 1145.2806,185.14281 59.2975,116.65362 h 11.0976 l -58.3496,-116.50134 z"
           style="fill:#f6df9e;fill-opacity:1;stroke:none;stroke-width:0.67500001px;stroke-linecap:butt;stroke-linejoin:miter;stroke-opacity:1" />
        <path
           style="fill:#ffffff;stroke:none;stroke-width:0.58515567px;stroke-linecap:butt;stroke-linejoin:miter;stroke-opacity:1"
           d="m 1145.2806,185.14281 59.2975,116.65362 2.5631,-0.007 -58.5779,-116.2682 z"
           id="path2912-4" />
      </g>
      <path
         id="path2941"
         d="m 1193.7118,185.14281 59.2975,116.65362 h 11.0976 l -58.3496,-116.50134 z"
         style="fill:#1d707e;fill-opacity:1;stroke:none;stroke-width:0.67500001px;stroke-linecap:butt;stroke-linejoin:miter;stroke-opacity:1" />
      <path
         id="path2941-7"
         d="m 1341.7224,185.14281 59.2975,116.65362 h 11.0976 l -58.3496,-116.50134 z"
         style="display:inline;fill:#1d707e;fill-opacity:1;stroke:none;stroke-width:0.67500001px;stroke-linecap:butt;stroke-linejoin:miter;stroke-opacity:1" />
      <path
         style="fill:#ffffff;fill-opacity:1;stroke:none;stroke-width:0.67500001px;stroke-linecap:butt;stroke-linejoin:miter;stroke-opacity:1"
         d="m 1027.5187,288.225 c -12.9557,18.19846 -11.6484,34.06537 -12.6562,51.29999 6.0079,-14.20975 12.3263,-27.91811 12.6562,-51.29999 z"
         id="path2958" />
      <path
         style="opacity:1;fill:#ffffff;fill-opacity:1;stroke:none;stroke-width:0.22500001;stroke-linecap:butt;stroke-linejoin:miter;stroke-miterlimit:4;stroke-dasharray:none;stroke-dashoffset:0;stroke-opacity:1;paint-order:markers fill stroke"
         d="m 1012.6688,344.58749 c 6.6609,1.45959 1.5755,6.78872 -3.0376,7.0875 -0.2699,-3.06285 -1.8708,-6.8525 3.0376,-7.0875 z"
         id="rect2960" />
      <path
         transform="translate(0,238.11023)"
         style="display:inline;fill:#1d707e;fill-opacity:1;stroke:none;stroke-width:0.67500001px;stroke-linecap:butt;stroke-linejoin:miter;stroke-opacity:1"
         d="m 1056.4648,380.09372 142.3133,-139.98433 2.8886,2.88863 -142.0855,139.72299 z"
         id="path2965" />
      <path
         style="display:inline;fill:#1d707e;fill-opacity:1;stroke:none;stroke-width:0.67500001px;stroke-linecap:butt;stroke-linejoin:miter;stroke-opacity:1"
         d="m 1293.6529,571.54253 149.6539,-146.98745 2.8886,2.88863 -149.4261,146.72611 z"
         id="path2965-3" />
      <path
         style="display:inline;fill:#f6df9e;fill-opacity:1;stroke:none;stroke-width:0.67500001px;stroke-linecap:butt;stroke-linejoin:miter;stroke-opacity:1"
         d="m 1019.9053,582.68053 175.9842,-173.37618 2.8886,2.88863 -175.7564,173.11484 z"
         id="path2965-5" />
      <path
         style="display:inline;fill:#f6df9e;fill-opacity:1;stroke:none;stroke-width:0.67500001px;stroke-linecap:butt;stroke-linejoin:miter;stroke-opacity:1"
         d="m 1290.5365,502.88964 115.9749,-114.11605 2.8886,2.88863 -115.7471,113.85471 z"
         id="path2965-5-8" />
    </g>
  </g>
</svg>
